<?xml version="1.0"?>
<svg xmlns="http://www.w3.org/2000/svg" width="32" height="32" viewBox="0 0 32 32">
  <path fill="red" fill-rule="evenodd" d="M23.9869,4.03125 C23.9869,3.46171 24.4486,3 25.0181,3 C25.5876,3 26.0494,3.46171 26.0494,4.03125 C26.0494,4.60079 25.5876,5.0625 25.0181,5.0625 C24.4486,5.0625 23.9869,4.60079 23.9869,4.03125 Z M25.0181,0 C22.7917,0 20.9869,1.80485 20.9869,4.03125 C20.9869,6.25765 22.7917,8.0625 25.0181,8.0625 C27.2445,8.0625 29.0494,6.25765 29.0494,4.03125 C29.0494,1.80485 27.2445,0 25.0181,0 Z M15.0831,8.23894 L1.40738,21.9147 C-0.349982,23.672 -0.349986,26.5213 1.40737,28.2786 L3.72146,30.5927 C5.47882,32.3501 8.32806,32.3501 10.0854,30.5927 L23.7612,16.917 L24.4095,17.5654 C24.9953,18.1511 25.9451,18.1511 26.5309,17.5654 C27.1167,16.9796 27.1167,16.0298 26.5309,15.444 L16.5886,5.50182 C16.0029,4.91604 15.0531,4.91604 14.4673,5.50182 C13.8815,6.08761 13.8815,7.03736 14.4673,7.62314 L15.0831,8.23894 Z M21.6398,14.7957 L17.2044,10.3603 L10.7442,16.8205 C11.3596,16.962 11.9801,17.2269 12.5705,17.6633 C13.2133,18.1385 13.7121,18.6167 14.0924,18.9814 L14.2007,19.0851 C14.6319,19.497 14.8322,19.6597 15.0015,19.743 L15.0086,19.7465 C15.1158,19.8005 15.5435,20.0162 17.478,18.9472 L17.5006,18.9349 L21.6398,14.7957 Z M3.5287,24.036 L6.85325,20.7114 C6.91168,20.6784 6.96857,20.6411 7.02352,20.5994 C7.3978,20.3155 8.09814,19.9277 8.86182,19.7641 C9.60568,19.6047 10.2555,19.6828 10.7873,20.0759 C11.2692,20.4321 11.638,20.7851 12.0258,21.1562 L12.1286,21.2546 L12.1305,21.2564 C12.5179,21.6264 13.0324,22.1177 13.6776,22.435 C13.7514,22.4714 13.8255,22.5049 13.8999,22.5356 L7.9641,28.4714 C7.37831,29.0572 6.42857,29.0572 5.84278,28.4714 L3.52869,26.1573 C2.94291,25.5715 2.94291,24.6218 3.5287,24.036 Z M29.8667,10.977 C29.8667,12.0425 29.003,12.9062 27.9375,12.9062 C26.872,12.9062 26.0082,12.0425 26.0082,10.977 C26.0082,9.91149 26.872,9.04773 27.9375,9.04773 C29.003,9.04773 29.8667,9.91149 29.8667,10.977 Z"/>
</svg>
